{
    "layout": {
        "size": 3
    },
    "subject": [
        {
            "id":"help",
            "name": "Version History",
            "layout": {
                "size": 3,
                "row": 1,
                "col": 12
            },
            "html": "<p> <br> </p>"
        }
    ]
}