{
  "app": "WorkingHouse",
  "type": "command",
  "description": "Dynamic Live BI",
  "interface": {
    "description": "",
    "input": {
      "subtitle": "Dynamic Live BI",
      "fields": []
    },
    "output": {
      "fields": [
        "b.area JOIN: left join  store b on a.store_id = b.store_id left join trans_head m on a.trans_id = m.trans_id ",
        "b1.store_name JOIN: left join store b1 on a.store_id = b1.store_id left join trans_head m on a.trans_id = m.trans_id",
        "b2.order_type JOIN: left join (select store_id,case when store_id like '8%' then '線上' when store_id like '9%' then '線上' else '線下' end as order_type from store) b2 on a.store_id = b2.store_id left join trans_head m on a.trans_id = m.trans_id",
        "c.age JOIN: left join trans_head b3 on a.trans_id = b3.trans_id left join (select ID,year(now())-year(birthday) as age  from VIP_member) c on b3.VIP_cardnum = c.ID left join trans_head m on a.trans_id = m.trans_id",
        "concat(weekday(trans_date),\"-\",DATE_FORMAT(trans_date,\"%A\")) JOIN: left join trans_head m on a.trans_id = m.trans_id",
        "concat(\"Q\",quarter(trans_date)) JOIN: left join trans_head m on a.trans_id = m.trans_id",
        "c1.name JOIN: left join product b4 on a.product_id = b4.product_id left join  series c1 on b4.series_id = c1.id left join trans_head m on a.trans_id = m.trans_id",
        "b5.product_name JOIN: left join product b5 on a.product_id = b5.product_id left join trans_head m on a.trans_id = m.trans_id",
        "year(trans_date) JOIN: left join trans_head m on a.trans_id = m.trans_id",
        "c3.sex JOIN: left join trans_head b8 on a.trans_id = b8.trans_id left join (select ID,sex  from VIP_member) c3 on b8.VIP_cardnum = c3.ID left join trans_head m on a.trans_id = m.trans_id",
        "round((b9.product_cost+b9.other_cost),0) JOIN: left join product b9 on a.product_id = b9.product_id left join trans_head m on a.trans_id = m.trans_id",
        "trans_price",
        "qty"
      ],
      "b.area JOIN: left join  store b on a.store_id = b.store_id left join trans_head m on a.trans_id = m.trans_id": {
        "name": "店點區域",
        "type": "string"
      },
      "b1.store_name JOIN: left join store b1 on a.store_id = b1.store_id left join trans_head m on a.trans_id = m.trans_id": {
        "name": "店點名稱",
        "type": "string"
      },
      "b2.order_type JOIN: left join (select store_id,case when store_id like '8%' then '線上' when store_id like '9%' then '線上' else '線下' end as order_type from store) b2 on a.store_id = b2.store_id left join trans_head m on a.trans_id = m.trans_id": {
        "name": "線上/線下",
        "type": "string"
      },
      "c.age JOIN: left join trans_head b3 on a.trans_id = b3.trans_id left join (select ID,year(now())-year(birthday) as age  from VIP_member) c on b3.VIP_cardnum = c.ID left join trans_head m on a.trans_id = m.trans_id": {
        "name": "會員年紀",
        "type": "string"
      },
      "concat(weekday(m.trans_date),\"-\",DATE_FORMAT(m.trans_date,\"%A\")) JOIN: left join trans_head m on a.trans_id = m.trans_id": {
        "name": "交易星期",
        "type": "string"
      },
      "concat(\"Q\",quarter(trans_date)) JOIN: left join trans_head m on a.trans_id = m.trans_id": {
        "name": "銷售季度",
        "type": "string"
      },
      "c1.name JOIN: left join product b4 on a.product_id = b4.product_id left join  series c1 on b4.series_id = c1.id left join trans_head m on a.trans_id = m.trans_id": {
        "name": "商品系列",
        "type": "string"
      },
      "b5.product_name JOIN: left join product b5 on a.product_id = b5.product_id left join trans_head m on a.trans_id = m.trans_id": {
        "name": "商品名稱",
        "type": "string"
      },
      "year(trans_date) JOIN: left join trans_head m on a.trans_id = m.trans_id": {
        "name": "銷售年份",
        "type": "string"
      },
      "c3.sex JOIN: left join trans_head b8 on a.trans_id = b8.trans_id left join (select ID,sex  from VIP_member) c3 on b8.VIP_cardnum = c3.ID left join trans_head m on a.trans_id = m.trans_id": {
        "name": "會員性別",
        "type": "string"
      },
      "round((b9.product_cost+b9.other_cost),0) JOIN: left join product b9 on a.product_id = b9.product_id left join trans_head m on a.trans_id = m.trans_id": {
        "name": "產品成本",
        "type": "string"
      },
      "qty": {
        "name": "數量",
        "type": "number"
      },
      "trans_price": {
        "name": "交易金額",
        "type": "number"
      },
      "m.VIP_cardnum": {
        "name": "會員ID",
        "type": "string"
      }
    }
  },
  "charts": [
    {
      "name": "Dynamic Live BI",
      "type": "tblivebi",
      "table": "trans_record",
      "max": 30,
      "order": "asc",
      "setting": false,
      "timestamp": "trans_date",
      "time": {
        "field": "trans_date",
        "defaults": [
          "2020-05-01",
          "2020-05-02"
        ],
        "limit": {
          "max": "-0M",
          "min": "2015-01-01"
        }
      },
      "x": {
        "fields": [
          "year(trans_date) JOIN: left join trans_head m on a.trans_id = m.trans_id",
          "concat(\"Q\",quarter(trans_date)) JOIN: left join trans_head m on a.trans_id = m.trans_id",
          "concat(weekday(m.trans_date),\"-\",DATE_FORMAT(m.trans_date,\"%A\")) JOIN: left join trans_head m on a.trans_id = m.trans_id",
          "c.age JOIN: left join trans_head b3 on a.trans_id = b3.trans_id left join (select ID,year(now())-year(birthday) as age  from VIP_member) c on b3.VIP_cardnum = c.ID left join trans_head m on a.trans_id = m.trans_id",
          "c3.sex JOIN: left join trans_head b8 on a.trans_id = b8.trans_id left join (select ID,sex  from VIP_member) c3 on b8.VIP_cardnum = c3.ID left join trans_head m on a.trans_id = m.trans_id",
          "b2.order_type JOIN: left join (select store_id,case when store_id like '8%' then '線上' when store_id like '9%' then '線上' else '線下' end as order_type from store) b2 on a.store_id = b2.store_id left join trans_head m on a.trans_id = m.trans_id",
          "b.area JOIN: left join  store b on a.store_id = b.store_id left join trans_head m on a.trans_id = m.trans_id",
          "b1.store_name JOIN: left join store b1 on a.store_id = b1.store_id left join trans_head m on a.trans_id = m.trans_id",
          "c1.name JOIN: left join product b4 on a.product_id = b4.product_id left join  series c1 on b4.series_id = c1.id left join trans_head m on a.trans_id = m.trans_id",
          "b5.product_name JOIN: left join product b5 on a.product_id = b5.product_id left join trans_head m on a.trans_id = m.trans_id",
          "round((b9.product_cost+b9.other_cost),0) JOIN: left join product b9 on a.product_id = b9.product_id left join trans_head m on a.trans_id = m.trans_id"
        ],
        "year(trans_date) JOIN: left join trans_head m on a.trans_id = m.trans_id": {
          "order": "asc",
          "sort": "x"
        },
        "concat(\"Q\",quarter(trans_date)) JOIN: left join trans_head m on a.trans_id = m.trans_id": {
          "order": "asc",
          "sort": "x"
        },
        "concat(weekday(m.trans_date),\"-\",DATE_FORMAT(m.trans_date,\"%A\")) JOIN: left join trans_head m on a.trans_id = m.trans_id": {
          "order": "asc",
          "sort": "x"
        },
        "b.area JOIN: left join  store b on a.store_id = b.store_id left join trans_head m on a.trans_id = m.trans_id": {
          "order": "desc",
          "sort": "y"
        },
        "b1.store_name JOIN: left join store b1 on a.store_id = b1.store_id left join trans_head m on a.trans_id = m.trans_id": {
          "order": "desc",
          "sort": "y"
        },
        "b2.order_type JOIN: left join (select store_id,case when store_id like '8%' then '線上' when store_id like '9%' then '線上' else '線下' end as order_type from store) b2 on a.store_id = b2.store_id left join trans_head m on a.trans_id = m.trans_id": {
          "order": "desc",
          "sort": "y"
        },
        "c.age JOIN: left join trans_head b3 on a.trans_id = b3.trans_id left join (select ID,year(now())-year(birthday) as age  from VIP_member) c on b3.VIP_cardnum = c.ID left join trans_head m on a.trans_id = m.trans_id": {
          "order": "asc",
          "sort": "x"
        },
        "c3.sex JOIN: left join trans_head b8 on a.trans_id = b8.trans_id left join (select ID,sex  from VIP_member) c3 on b8.VIP_cardnum = c3.ID left join trans_head m on a.trans_id = m.trans_id": {
          "order": "asc",
          "sort": "x"
        },
        "c1.name JOIN: left join product b4 on a.product_id = b4.product_id left join  series c1 on b4.series_id = c1.id left join trans_head m on a.trans_id = m.trans_id": {
          "order": "desc",
          "sort": "y"
        },
        "b5.product_name JOIN: left join product b5 on a.product_id = b5.product_id left join trans_head m on a.trans_id = m.trans_id": {
          "order": "desc",
          "sort": "y"
        },
        "round((b9.product_cost+b9.other_cost),0) JOIN: left join product b9 on a.product_id = b9.product_id left join trans_head m on a.trans_id = m.trans_id": {
          "order": "desc",
          "sort": "y"
        },
        "setting": {
          "ticks": {
            "maxChars": 30
          }
        }
      },
      "y": {
        "fields": [
          "qty",
          "trans_price",
          "m.VIP_cardnum"
        ]
      },
      "y1": {
        "fields": [
          "qty",
          "trans_price",
          "m.VIP_cardnum"
        ]
      },
      "group": {
        "field": ""
      },
      "calculations": [
        {
          "label": "購買數量",
          "name": "sum",
          "exclusive": "",
          "format": "###,###筆",
          "y": [
            "qty"
          ],
          "legendInfo": [
            "sum"
          ]
        },
        {
          "label": "交易金額",
          "name": "sum",
          "exclusive": "",
          "format": "###,###元",
          "y": [
            "trans_price"
          ],
          "legendInfo": [
            "sum"
          ]
        },
        {
          "label": "交易會員數",
          "name": "distinct_count",
          "exclusive": "",
          "format": "###,###筆",
          "y": [
            "m.VIP_cardnum"
          ],
          "legendInfo": [
            "sum"
          ]
        }
      ],
      "calculations1": [
        {
          "label": "購買數量",
          "name": "sum",
          "exclusive": "",
          "format": "###,###",
          "y": [
            "qty"
          ],
          "legendInfo": [
            "sum"
          ]
        },
        {
          "label": "交易金額",
          "name": "sum",
          "exclusive": "",
          "format": "###,###元",
          "y": [
            "trans_price"
          ],
          "legendInfo": [
            "sum"
          ]
        }
      ],
      "track": {
        "show": false
      },
      "clock": {
        "show": false
      }
    }
  ]
}